{
    "display_name": "Scala 2.10.4 (Spark 1.4.0)",
    "language": "scala",
    "argv": [
        "/usr/local/spark-kernel/bin/sparkkernel",
        "--master", "yarn-client",
        "--spark-configuration", "spark.master=yarn-client,spark.yarn.queue=default"
        "--profile", "{connection_file}"
     ],
     "codemirror_mode": "scala"
}
